…
    ## date created (size, mb): 2020-10-05 10:31:54 (1.699)

    ## file min/max dates: 1965-01-01 / 2020-03-31

    ## using cached file: /Users/wangyuqi/Library/Caches/R/noaa_ghcnd/USS0023B17S.dly

    ## date created (size, mb): 2020-10-05 10:31:56 (0.88)

    ## file min/max dates: 1999-09-01 / 2020-10-31

``` r
weather_df
```

    ## # A tibble: 1,095 x 7
    ##    name           id          date        prcp  tmax  tmin month     
    ##    <chr>          <chr>       <date>     <dbl> <dbl> <dbl> <date>    
    ##  1 CentralPark_NY USW00094728 2017-01-01     0   8.9   4.4 2017-01-01
    ##  2 CentralPark_NY USW00094728 2017-01-02    53   5     2.8 2017-01-01
    ##  3 CentralPark_NY USW00094728 2017-01-03   147   6.1   3.9 2017-01-01
    ##  4 CentralPark_NY USW00094728 2017-01-04     0  11.1   1.1 2017-01-01
    ##  5 CentralPark_NY USW00094728 2017-01-05     0   1.1  -2.7 2017-01-01
    ##  6 CentralPark_NY USW00094728 2017-01-06    13   0.6  -3.8 2017-01-01
    ##  7 CentralPark_NY USW00094728 2017-01-07    81  -3.2  -6.6 2017-01-01
    ##  8 CentralPark_NY USW00094728 2017-01-08     0  -3.8  -8.8 2017-01-01
    ##  9 CentralPark_NY USW00094728 2017-01-09     0  -4.9  -9.9 2017-01-01
    ## 10 CentralPark_NY USW00094728 2017-01-10     0   7.8  -6   2017-01-01
    ## # … with 1,085 more rows

## `group_by`

``` r
weather_df %>% 
  group_by(name, month)
```

    ## # A tibble: 1,095 x 7
    ## # Groups:   name, month [36]
    ##    name           id          date        prcp  tmax  tmin month     
    ##    <chr>          <chr>       <date>     <dbl> <dbl> <dbl> <date>    
    ##  1 CentralPark_NY USW00094728 2017-01-01     0   8.9   4.4 2017-01-01
    ##  2 CentralPark_NY USW00094728 2017-01-02    53   5     2.8 2017-01-01
    ##  3 CentralPark_NY USW00094728 2017-01-03   147   6.1   3.9 2017-01-01
    ##  4 CentralPark_NY USW00094728 2017-01-04     0  11.1   1.1 2017-01-01
    ##  5 CentralPark_NY USW00094728 2017-01-05     0   1.1  -2.7 2017-01-01
    ##  6 CentralPark_NY USW00094728 2017-01-06    13   0.6  -3.8 2017-01-01
    ##  7 CentralPark_NY USW00094728 2017-01-07    81  -3.2  -6.6 2017-01-01
    ##  8 CentralPark_NY USW00094728 2017-01-08     0  -3.8  -8.8 2017-01-01
    ##  9 CentralPark_NY USW00094728 2017-01-09     0  -4.9  -9.9 2017-01-01
    ## 10 CentralPark_NY USW00094728 2017-01-10     0   7.8  -6   2017-01-01
    ## # … with 1,085 more rows
…
## counting things

count month/name observations

``` r
weather_df %>% 
  group_by(name, month) %>% 
  summarize(n_obs = n())
```

    ## `summarise()` regrouping output by 'name' (override with `.groups` argument)

    ## # A tibble: 36 x 3
    ## # Groups:   name [3]
    ##    name           month      n_obs
    ##    <chr>          <date>     <int>
    ##  1 CentralPark_NY 2017-01-01    31
    ##  2 CentralPark_NY 2017-02-01    28
    ##  3 CentralPark_NY 2017-03-01    31
    ##  4 CentralPark_NY 2017-04-01    30
    ##  5 CentralPark_NY 2017-05-01    31
    ##  6 CentralPark_NY 2017-06-01    30
    ##  7 CentralPark_NY 2017-07-01    31
    ##  8 CentralPark_NY 2017-08-01    31
    ##  9 CentralPark_NY 2017-09-01    30
    ## 10 CentralPark_NY 2017-10-01    31
    ## # … with 26 more rows

``` r
#n_obs is the variable I created, and n() is the function to count
```

we can use `count()` as well

``` r
weather_df %>% 
  count(month, name, name = "n_obs")
```

    ## # A tibble: 36 x 3
    ##    month      name           n_obs
    ##    <date>     <chr>          <int>
    ##  1 2017-01-01 CentralPark_NY    31
    ##  2 2017-01-01 Waikiki_HA        31
    ##  3 2017-01-01 Waterhole_WA      31
    ##  4 2017-02-01 CentralPark_NY    28
    ##  5 2017-02-01 Waikiki_HA        28
    ##  6 2017-02-01 Waterhole_WA      28
    ##  7 2017-03-01 CentralPark_NY    31
    ##  8 2017-03-01 Waikiki_HA        31
    ##  9 2017-03-01 Waterhole_WA      31
    ## 10 2017-04-01 CentralPark_NY    30
    ## # … with 26 more rows
…
Other helpful counters

``` r
weather_df %>% 
  group_by(name, month) %>% 
  summarize(
    n_obs = n(),
    n_days = n_distinct(date)
    )
```

    ## `summarise()` regrouping output by 'name' (override with `.groups` argument)

    ## # A tibble: 36 x 4
    ## # Groups:   name [3]
    ##    name           month      n_obs n_days
    ##    <chr>          <date>     <int>  <int>
    ##  1 CentralPark_NY 2017-01-01    31     31
    ##  2 CentralPark_NY 2017-02-01    28     28
    ##  3 CentralPark_NY 2017-03-01    31     31
    ##  4 CentralPark_NY 2017-04-01    30     30
    ##  5 CentralPark_NY 2017-05-01    31     31
    ##  6 CentralPark_NY 2017-06-01    30     30
    ##  7 CentralPark_NY 2017-07-01    31     31
    ##  8 CentralPark_NY 2017-08-01    31     31
    ##  9 CentralPark_NY 2017-09-01    30     30
    ## 10 CentralPark_NY 2017-10-01    31     31
    ## # … with 26 more rows
…
